<svg width="25" height="30" viewBox="0 0 25 30" fill="none" xmlns="http://www.w3.org/2000/svg">
<path d="M24.5261 15C24.5261 8.35808 19.1417 2.97375 12.4998 2.97375C5.8579 2.97375 0.473563 8.35808 0.473563 15C0.473563 21.6419 5.8579 27.0263 12.4998 27.0263C19.1417 27.0263 24.5261 21.6419 24.5261 15Z" stroke="#424242" stroke-width="0.947492"/>
<path d="M12.4999 23.7499C10.1793 23.7499 7.95369 22.828 6.31275 21.1871C4.67181 19.5461 3.74993 17.3205 3.74993 14.9999C3.74994 12.6792 4.67181 10.4536 6.31275 8.81269C7.95369 7.17175 10.1793 6.24988 12.4999 6.24988L12.4999 14.9999L12.4999 23.7499Z" fill="#424242"/>
</svg>
